Get a primary text by URN. — get_perseus_text • rperseus
…
#>  6 χρύσεα, παμφανόωντα· σέβ… urn:… Homeric H… Hymn… Hymni Home… grc            6
#>  7 ἀθανάτους· ἣ δὲ πρόσθεν … urn:… Homeric H… Hymn… Hymni Home… grc            7
#>  8 ἐσσυμένως ὤρουσεν ἀπ’ ἀθ… urn:… Homeric H… Hymn… Hymni Home… grc            8
#>  9 σείσασ’ ὀξὺν ἄκοντα· μέγ… urn:… Homeric H… Hymn… Hymni Home… grc            9
#> 10 δεινὸν ὑπὸ βρίμης γλαυκώ… urn:… Homeric H… Hymn… Hymni Home… grc           10
#> 11 σμερδαλέον ἰάχησεν· ἐκιν… urn:… Homeric H… Hymn… Hymni Home… grc           11
#> 12 κύμασι πορφυρέοισι κυκώμ… urn:… Homeric H… Hymn… Hymni Home… grc           12
#> 13 ἐξαπίνης· στῆσεν δ’ Ὑπερ… urn:… Homeric H… Hymn… Hymni Home… grc           13
#> 14 ἵππους ὠκύποδας δηρὸν χρ… urn:… Homeric H… Hymn… Hymni Home… grc           14
#> 15 εἵλετ’ ἀπ’ ἀθανάτων ὤμων… urn:… Homeric H… Hymn… Hymni Home… grc           15
#> 16 Παλλὰς Ἀθηναίη· γήθησε δ… urn:… Homeric H… Hymn… Hymni Home… grc           16
#> 17 καὶ σὺ μὲν οὕτω χαῖρε, Δ… urn:… Homeric H… Hymn… Hymni Home… grc           17
#> 18 αὐτὰρ ἐγὼ καὶ σεῖο καὶ ἄ… urn:… Homeric H… Hymn… Hymni Home… grc           18
get_perseus_text("urn:cts:latinLit:stoa0215b.stoa003.opp-lat1")
#> # A tibble: 69 × 7
#>    text                      urn   group_name label description language section
#>    <chr>                     <chr> <chr>      <chr> <chr>       <chr>      <int>
#>  1 f Tibique, Domine, celsu… urn:… Orientius… Orat… Orientius … lat            1
#>  2 et illa moles quadriform… urn:… Orientius… Orat… Orientius … lat            2
#>  3 te sempiterno confitentu… urn:… Orientius… Orat… Orientius … lat            3
#>  4 et nos imago consonantis… urn:… Orientius… Orat… Orientius … lat            4
#>  5 amen sonamus, alleluia d… urn:… Orientius… Orat… Orientius … lat            5
#>  6 Te septem primi deprecan… urn:… Orientius… Orat… Orientius … lat            6
#>  7 ceu ciuitatis septem pri… urn:… Orientius… Orat… Orientius … lat            7
#>  8 solio propinqui, ianitor… urn:… Orientius… Orat… Orientius … lat            8
#>  9 et nos imago consonantis… urn:… Orientius… Orat… Orientius … lat            9
#> 10 amen sonamus, alleluia d… urn:… Orientius… Orat… Orientius … lat           10
#> # ℹ 59 more rows
…
