rperseus Vignette • rOpenSci: rperseus
…
A snapshot of available authors:

library(dplyr)
count(perseus_catalog, group_name, sort = TRUE)

## # A tibble: 347 x 2
##    group_name        n
##    <chr>         <int>
##  1 Libanius        103
##  2 Galen           101
##  3 Hebrew Bible     79
##  4 Augustinus       70
##  5 Lysias           68
##  6 Homeric Hymns    66
##  7 Mishnah          63
##  8 Plato            62
##  9 Isocrates        60
## 10 Hieronymus       56
## # … with 337 more rows
…
Parsing Excerpts

You can parse any Greek excerpt with parse_excerpt. A data frame is returned including part of speech, person, number, tense, mood, voice, gender, case, and degree.

parse_excerpt("urn:cts:greekLit:tlg0031.tlg002.perseus-grc2", "5.1-5.3")

## # A tibble: 48 x 12
##    word  form  verse part_of_speech person number tense mood  voice gender case 
##    <chr> <chr> <chr> <chr>          <chr>  <chr>  <chr> <chr> <chr> <chr>  <chr>
##  1 καί   Καὶ   5.1   conjunction    <NA>   <NA>   <NA>  <NA>  <NA>  <NA>   <NA> 
##  2 ἔρχο… ἦλθον 5.1   verb           third  plural aori… indi… acti… <NA>   <NA> 
##  3 εἰς   εἰς   5.1   preposition    <NA>   <NA>   <NA>  <NA>  <NA>  <NA>   <NA> 
##  4 ὁ     τὸ    5.1   article        <NA>   singu… <NA>  <NA>  <NA>  neuter accu…
##  5 πέραν πέραν 5.1   adverb         <NA>   <NA>   <NA>  <NA>  <NA>  <NA>   <NA> 
##  6 ὁ     τῆς   5.1   article        <NA>   singu… <NA>  <NA>  <NA>  femin… gena…
##  7 θάλα… θαλά… 5.1   noun           <NA>   singu… <NA>  <NA>  <NA>  femin… gena…
##  8 εἰς   εἰς   5.1   preposition    <NA>   <NA>   <NA>  <NA>  <NA>  <NA>   <NA> 
##  9 ὁ     τὴν   5.1   article        <NA>   singu… <NA>  <NA>  <NA>  femin… accu…
## 10 χώρα  χώραν 5.1   noun           <NA>   singu… <NA>  <NA>  <NA>  femin… accu…
## # … with 38 more rows, and 1 more variable: degree <chr>
…
